{
    "captchapng":"",
    "captchapngId":"",
    "params":{
               "market"     : "ELOTETH",
               "money"      : "ETH",
              "moneyAccount": "ETHAccount",
               "asset"      : "ELOT" ,
             "assetAccount" : "ELOTAccount",
               "period"     : "",
               "pairs"      : [] ,
               "start"      : "" ,
               "end"        : "",
               "interval"   : "86400",
               "type"       : "kline" ,
               "marketEvent": "",
             "maketDecimal" : ""
            },
    "languages":[],
    "putOrder":{"input_amount_buy":"","input_price_buy":"","yourpaybuy":"","input_amount_sell":"","input_price_sell":"","yourpaysell":""},
    "market":{
        "finishedOrderShow":{},
        "tradeHistoryShow":{},
        "markethistory":{},
        "orderBookBuy":{},
        "orderBookSell":{},
        "market":{},
        "header":{},
        "changeRate":""
    },
    "user":{

            "userid": "1540630043188",
            "email":"",
            "tx":{"BTC":{"withdraw":"","deposit":""}},
            "finishedOrder":[],
            "openOrders":[ {
                                "cancel":true,
                                "id": 2169,
                                "market": "ELOTETH",
                                "source": "",
                                "type": 1,
                                "side": 2,
                                "user": 3225260849,
                                "ctime": 1540824477.553488,
                                "mtime": 1540824477.553488,
                                "price": "0.2",
                                "amount": "1",
                                "taker_fee": "0.001",
                                "maker_fee": "0.001",
                                "left": "1",
                                "deal_stock": "0",
                                "deal_money": "0",
                                "deal_fee": "0"
                            }],
            "openOrdersCnt":1,
            "password":"",
            "repeatPassword":"",
            "Authorization":"bear eyJ0eXAiOiJKV1QiLCJhbGciOiJIUzI1NiJ9.eyJpZCI6IjE1NDA2MzAwNDMxODgiLCJpYXQiOjE1NDA2MzAwNjV9.-BkSQDgaiMvpneqBhSKhHZXak2ccSup8OuhA0IDjoHk",
            "token": "eyJ0eXAiOiJKV1QiLCJhbGciOiJIUzI1NiJ9.eyJpZCI6IjE1NDA2MzAwNDMxODgiLCJpYXQiOjE1NDA2MzAwNjV9.-BkSQDgaiMvpneqBhSKhHZXak2ccSup8OuhA0IDjoHk",
            "islogin":"true",
            "traderBalance":"{ETH:{available:6,frozen:6},BTC:{available:6,frozen:6},ELOT:{available:6,frozen:6}}",
            "wallet": {
                "mnemonic": "cabin smooth humble flash this artwork short bridge space omit cloth confirm",
                "bip39Seed": "bd40ee2cb7fc72f810508c92ff9f10cebb8784460fc6724afe7af2eec835551e0f26f9e63839676e46fcc8475521284328f6961827c378090e4fff0dc00aa7a5",
                "balance":"{ETH:6 , BTC :6 , ELOT:6 }",
                "deposit":"{ETH:6 , BTC :6 , ELOT:6 }",
                "withdraw":"{ETH:6 , BTC :6 , ELOT:6 }",
                "ethGasprice":"5",
                "btcFee":"0.00007",
                "ETHAccount": {
                    "coin": "ETH",
                    "privateKey": "cd973d285c8c1257c3e8835717b2947ebff113fce955902dbf0709a5fb6010d7",
                    "publicKey": "ebb534b2700825c9b60f896b96dd63e40ee830e53cf8115a8650e9efd2c468dcb86ab2b0b8c7c6f3a8c0d39179b83d5dc0bbb0472b0a5cb01332daea3e16d945",
                    "address": "0x0da408cb2cfe014ce8567eea7d4a7e194fc5c6d3"
                },
                "TokenAccount": {
                    "coin": "Token",
                    "privateKey": "cd973d285c8c1257c3e8835717b2947ebff113fce955902dbf0709a5fb6010d7",
                    "publicKey": "ebb534b2700825c9b60f896b96dd63e40ee830e53cf8115a8650e9efd2c468dcb86ab2b0b8c7c6f3a8c0d39179b83d5dc0bbb0472b0a5cb01332daea3e16d945",
                    "address": "0x0da408cb2cfe014ce8567eea7d4a7e194fc5c6d3"
                },
                "ETCAccount": {
                    "coin": "ETC",
                    "privateKey": "9fe050c80eb61cc912cd8c7ae8f49b3310e56f07c86fd60f1c7616f7a164c776",
                    "publicKey": "319ef6edf25b6fb08a94f5cfff6a1f0912d082d26ec0603a66cc41704dd0c9da9b9dfb93dfb107f55478ffce861d2e10581691215e0fd4d911146faa1aed1cb2",
                    "address": "0x5df33e72792b2e5034764110bbff503ff7b76399"
                },
                "BTCAccount": {
                    "coin": "BTC",
                    "privateKey": "KxvLNsiagozSsr4S3R1ZKb8j85wpzPeUT4xPcbLEz8w6oQTCuZuq",
                    "publicKey": "02a4e710e8a8bd3c03c31b3e615c929a2410520d258b366f10859146f494a3b58b",
                    "address": "15SXy8JKFeF5gp79tojytjFGKYmW8YM87f"
                },
                "BTCTestnetAccount": {
                    "coin": "BTC Testnet",
                    "privateKey": "cQRrktDgxFtzD3k8AykwomTduYBakcTm3jR1QjG99Mg3W7dkdQ15",
                    "publicKey": "02c42e2e2ad07239e22ab4d9ba421f07d4d9ae433439b9a700a8a47bd2f76c381e",
                    "address": "myms6jvWv6YK2vff4Zt6CJ92n8WTMbfo1c"
                },
                "LTCAccount": {
                    "coin": "LTC",
                    "privateKey": "T4VqvwoMQEtrVRPU3wkh1T3EVGz7SLVjUT4u2L9YYcwZLqUk5uF4",
                    "publicKey": "0239eb2211178c769a9501ac485a0aec282c8e6fe9d6f2d383c69c14d9663e2c27",
                    "address": "LVxTnQ8VGt4njjcAcxF4DAmnCtQxsWSikh"
                },
                "BCHAccount": {
                    "coin": "BCH",
                    "privateKey": "L3HkBrvoiqr5K5UWJ4GtPpPJTZKCSJTQzoAQZ92FgUzjjyWcbdSa",
                    "publicKey": "02ddbc3d86dab894dbec16ca8e9af819a24de87292afea799289892b9514d125d2",
                    "address": "13SNKKoNb43aCFvEzVufYyaTsHM3F3yPpX",
                    "cashaddress": "bitcoincash:qqdtcud6mz4wrv49ad2zux4rewgv4lm8fv4m8xg86s",
                    "bitpayaddress": "CJuFtN9SU7276PpfgFEb8VCVVQZTDPheA5"
                },
                "USDTAccount": {
                    "coin": "USDT",
                    "privateKey": "KzsX8fGMubnq7JT47T1G46PphvFAc2fG86awzrLoYzesgAMxFv7n",
                    "publicKey": "02cafe0d4735fa94297a51ece6ab0943b5b8fc580e14623da5d638fa91b1b28012",
                    "address": "1JCqZkNVRsBUbzgjJ2DYGU3cLhZQca6gpP"
                }
            },

            "account": {
                "ETHAccount": {
                    "coin": "ETH",
                    "publicKey": "a4e8897aadd5b44d8b34a163b701f7c77902f2b7d3a6c2ca94ae75e67cc5694fd3d2d98f4b62f6fcdecefb1486f595b70fb5a6ee169f97080b96891803a2e3b7",
                    "address": "0xe55c5753b334482e4dd656135fa5b7df403080af",
                    "gasPrice":"4"
                },
                "TokenAccount": {
                    "coin": "Token",
                    "publicKey": "a4e8897aadd5b44d8b34a163b701f7c77902f2b7d3a6c2ca94ae75e67cc5694fd3d2d98f4b62f6fcdecefb1486f595b70fb5a6ee169f97080b96891803a2e3b7",
                    "address": "0xe55c5753b334482e4dd656135fa5b7df403080af",
                    "gasPrice":"4"
                },
                "ETCAccount": {
                    "coin": "ETC",
                    "publicKey": "f11d6d71b05a1a33e5045fa2098405eb39dc9c6aa8fe3babcd682e1cb261d35b7f414ded00423115c9ed0e31f1896f3719f808a09941390548a610a8fa244f48",
                    "address": "0x57da319cb880b18183a6a1b52d9006e4aa9ec8f3",
                    "gasPrice":"4"
                },
                "BTCAccount": {
                    "coin": "BTC",
                    "publicKey": "033a4421a2f53af44c7f6523ada7c23afef5cb4c9b9bdb8573480c9ea7106c9d68",
                    "address": "1A16AsKdjMm82rfDuyzd7SQcMqoJPNePuR"
                },
                "BTCTestnetAccount": {
                    "coin": "BTC Testnet",
                    "publicKey": "0215fad904f1cc8cf7a4c204da919cd4579d5a24e43c5cdb775245a5c5d02cedaa",
                    "address": "mnFbnmrT9QwEBfNR8SbbmvaRvGmjiv2YdK"
                },
                "LTCAccount": {
                    "coin": "LTC",
                    "publicKey": "03b492e7f0bf679dee76ba1017262b07b6db7a922ac6ddaa298d1264978a8afd8e",
                    "address": "LL4v7HNzLYAopEy3XQckyUXmLAemoeUv4S"
                },
                "BCHAccount": {
                    "coin": "BCH",
                    "publicKey": "0293df340e039b6abddae7ecefd57d10bc3b19c91e68fa19f70b91055d79431030",
                    "address": "18tD61gFUrt4rwnYfqVyRm4BCXMVUbnvHd",
                    "cashaddress": "bitcoincash:qpt8stctrpasdfx6lax62qlkmgz8tmlaqst9mypana",
                    "bitpayaddress": "CQM6f42KMurbm5gyMapu1GgCpeZuNp6sqG"
                },
                "USDTAccount": {
                    "coin": "USDT",
                    "publicKey": "0235b887bb8035eb4c172c43373c7e85ff050797c740dcb81bd5df858d8de0e613",
                    "address": "1B7Qtq1ZZkHSrv4asv5uN7mZDfMNcjSUbu"
                }
            }
    }

}
